﻿FIELDS TO COMPLETE (PHASE 1),,Your Response,,,
Paper ID:    ,,,,,IEEE_12
Paper Title,,,,,Effect of Robot Performance on Human–Robot Trust in Time-Critical Situations
Researcher Name (person doing the analysis/filling in the spreadsheet for this paper),,,,,Ahmed Nasr
Date researcher analysed this paper:,,,,,07-May
EXCLUSION/INCLUSION CRITERIA,,,,,
Exclusion Criteria (a): ,Published in a language other than English,,,,"No, we only include English languwage"
Exclusion Criteria (b): ,Published more than 8 years ago,,,,"No, we want to add most recent papers"
Exclusion Criteria (c): ,Publication that do not include empirical studies,,,,"No, we are including papers with emerical studies only"
Exclusion Criteria (d):,Blogs and articles,,,,"No, we are not including books, blogs nor articles "
Inclusion Criteria (a): ,Published in English Language,,,,"Yes, we only include papers in English language"
Inclusion Criteria (b): ,Publication in journals and/or conferences.,,,,"Yes, we only include journals and/or conferences"
Inclusion Criteria (c): ,Publication that include empirical studies,,,,"Yes, we add emperical studies."
Inclusion Criteria (d): ,Published in the last 8 years,,,,"Yes, we include most recent papers "
Decision Status: {Accept/Reject/Waiting for Full paper/Don't Know}   ,,,,,Accepted
Decision Based on: {Abstract/Introduction/Conclusion/ Method/Results/Whole Paper/Peer Review/Arbitration},,,,,Abstract
CONTEXT OF STUDY,,,,,
Subject,,,,,Human Robot Interaction
Type of study,,,,,Empirical
Population,,,,,1 Participant
,,,,,
DATA EXTRACTION,,,,,
(data item a),,,,,The participant choses if he/she needs a guideance robot to help with the maze.
,,,,,
,,,,,
,,,,,
THEMES,,,,,List any themes that you see in this paper
Emerging Theme,,,,,Maze
Emerging Theme,,,,,
Emerging Theme,,,,,
ADDITIONAL DATA/FOLLOW UP,,,,,Record useful text here / exact quotes we can use in our report
Other observations or useful quotes found in paper,,,,,
Other observations or useful quotes found in paper,,,,,
Other observations or useful quotes found in paper,,,,,
SNOWBALLING,,,,,Additional papers you should look at that were not in your search
References found in paper/snowballing (to follow up),,,,,
References found in paper/snowballing (to follow up),,,,,
References found in paper/snowballing (to follow up),,,,,
References found in paper/snowballing (to follow up),,,,,