﻿FIELDS TO COMPLETE (PHASE 1),,Your Response,,,Comments,,,,,
Paper ID:    ,,,,,Springer_1,,,,,
Paper Title,,,,,How the Timing and Magnitude of Robot ErrorsInfluence Peoples’ Trust of Robotsin an Emergency Scenario,,,,,
Researcher Name (person doing the analysis/filling in the spreadsheet for this paper),,,,,Senorita Gade,,,,,
Date researcher analysed this paper:,,,,,When you completed this form,,,,,
EXCLUSION/INCLUSION CRITERIA,,,,,,,,,,
Exclusion Criteria (a): Is the study published in language other than English?,,,,,,,,,,"No, we only include one language."
Exclusion Criteria (b): Is the study published more than 8 years ago?,,,,,,,,,,"No, we want to add recent papers"
Exclusion Criteria (c): Is the study based on publication that do not include empirical studies?,,,,,,,,,,"No, we are including papers with empirical evidence"
Exclusion Criteria (d): Blogs and articles?,,,,,,,,,,"No, we are not including Blogs or articles, Books, Book chapters; PhD theses, Technical reports, non-peer reviewed sources or posters."
Inclusion Criteria (a): Published in English Language?,,,,,,,,,,"Yes, we only include papers in English Language."
Inclusion Criteria (b): Published in the last 8 years?,,,,,,,,,,"yes, we do not include papers published more than 8 years ago"
Inclusion Criteria (c): Publication that include empirical studies?,,,,,,,,,,"Yes, we want to add empirical studies."
Inclusion Criteria (d): Publication in journals and/or conferences?,,,,,,,,,,"Yes, we look to only include conference and journal papers."
Decision Status: {Accept/Reject/Waiting for Full paper/Don't Know}   ,,,,,,,,,,Accept
Decision Based on: {Abstract/Introduction/Conclusion/ Method/Results/Whole Paper/Peer Review/Arbitration},,,,,at what point did you make your decision?,,,,,Abstract
CONTEXT OF STUDY,,,,,add rows for each  aspect related to the context of the study you need to capture,,,,,
Course / subject taught :,,,,,,,,,,Human Robot - trust
Course / subject taught :,,,,,,,,,,Human Robot - Interaction
Population:  {HE student/ practitioner/ other},,,,,,,,,,Participants
"Type of study: {Marco Polo, Tools, Experimental, Nifty, Philosophy, John Henry}",,,,,,,,,,Experimental
DATA EXTRACTION,,,,,add rows for each study result you need to capture,,,,,
"Methodology (if experiment)(Action Research, Field Study, Descriptive Case Study, Experience Report)",,,,,,,,,,Descriptive Case Study
Method/Analytical technique {Questionnaire/survey; Face to face interviews; Observation; Focus Groups},,,,,,,,,,Observation
(data item c),,,,,,,,,,
(data item d),,,,,,,,,,
THEMES,,,,,List any themes that you see in this paper,,,,,
Emerging Theme,,,,,,,,,,
Emerging Theme,,,,,,,,,,
Emerging Theme,,,,,,,,,,
ADDITIONAL DATA/FOLLOW UP,,,,,Record useful text here / exact quotes we can use in our report,,,,,
Other observations or useful quotes found in paper,,,,,,,,,,
Other observations or useful quotes found in paper,,,,,,,,,,
Other observations or useful quotes found in paper,,,,,,,,,,
SNOWBALLING,,,,,Additional papers you should look at that were not in your search,,,,,
References found in paper/snowballing (to follow up),,,,,,,,,,"Booth, S., Tompkin, J., Pfister, H., Waldo, J., Gajos, K., Nagpal, R.: Piggybackingrobots: human-robot overtrust in university dormitory security, pp. 426–434. ACM(2017)"
References found in paper/snowballing (to follow up),,,,,,,,,,"Salem, M., Dautenhahn, K.: Evaluating trust and safety in HRI: practical issuesand ethical challenges. In: Proceedings of the 10th ACM/IEEE International Con-ference on Human-Robot Interaction (HRI 2015): Workshop on the Emerging Pol-icy and Ethics of Human-Robot Interaction (2015)"
References found in paper/snowballing (to follow up),,,,,,,,,,
References found in paper/snowballing (to follow up),,,,,,,,,,